#                    1epsi                    2epsi                       3k                       4k                     5mem                     6mem                       7n                       8n                  9nEvals                 10nEvals                    11obj                    12obj
                      0.1                        0                       50                        0                      139                        0               1.6328e+06                        0              3.26589e+06                        0                    63721                        0
#                    1epsi                    2epsi                       3k                       4k                     5mem                     6mem                       7n                       8n                  9nEvals                 10nEvals                    11obj                    12obj
                      0.1                        0                       75                        0                      230                        0               1.6328e+06                        0              3.26607e+06                        0                    80182                        0
#                    1epsi                    2epsi                       3k                       4k                     5mem                     6mem                       7n                       8n                  9nEvals                 10nEvals                    11obj                    12obj
                      0.1                        0                      112                        0                      305                        0               1.6328e+06                        0              3.26622e+06                        0                   113481                        0
#                    1epsi                    2epsi                       3k                       4k                     5mem                     6mem                       7n                       8n                  9nEvals                 10nEvals                    11obj                    12obj
                      0.1                        0                      168                        0                      505                        0               1.6328e+06                        0              3.26662e+06                        0                   144848                        0
#                    1epsi                    2epsi                       3k                       4k                     5mem                     6mem                       7n                       8n                  9nEvals                 10nEvals                    11obj                    12obj
                      0.1                        0                      253                        0                      788                        0               1.6328e+06                        0              3.26718e+06                        0                   191729                        0
#                    1epsi                    2epsi                       3k                       4k                     5mem                     6mem                       7n                       8n                  9nEvals                 10nEvals                    11obj                    12obj
                      0.1                        0                      379                        0                     1298                        0               1.6328e+06                        0               3.2682e+06                        0                   239172                        0
#                    1epsi                    2epsi                       3k                       4k                     5mem                     6mem                       7n                       8n                  9nEvals                 10nEvals                    11obj                    12obj
                      0.1                        0                      569                        0                     1936                        0               1.6328e+06                        0              3.26948e+06                        0                   307449                        0
#                    1epsi                    2epsi                       3k                       4k                     5mem                     6mem                       7n                       8n                  9nEvals                 10nEvals                    11obj                    12obj
                      0.1                        0                      854                        0                     2881                        0               1.6328e+06                        0              3.27137e+06                        0                   391484                        0
#                    1epsi                    2epsi                       3k                       4k                     5mem                     6mem                       7n                       8n                  9nEvals                 10nEvals                    11obj                    12obj
                      0.1                        0                     1281                        0                     4335                        0               1.6328e+06                        0              3.27428e+06                        0                   504651                        0
#                    1epsi                    2epsi                       3k                       4k                     5mem                     6mem                       7n                       8n                  9nEvals                 10nEvals                    11obj                    12obj
                      0.1                        0                     1922                        0                     6322                        0               1.6328e+06                        0              3.27825e+06                        0                   665749                        0
#                    1epsi                    2epsi                       3k                       4k                     5mem                     6mem                       7n                       8n                  9nEvals                 10nEvals                    11obj                    12obj
                      0.1                        0                     2883                        0                     9369                        0               1.6328e+06                        0              3.28435e+06                        0                   835047                        0
#                    1epsi                    2epsi                       3k                       4k                     5mem                     6mem                       7n                       8n                  9nEvals                 10nEvals                    11obj                    12obj
                      0.1                        0                     4324                        0                    14083                        0               1.6328e+06                        0              3.29377e+06                        0              1.08888e+06                        0
#                    1epsi                    2epsi                       3k                       4k                     5mem                     6mem                       7n                       8n                  9nEvals                 10nEvals                    11obj                    12obj
                      0.1                        0                     6487                        0                    20489                        0               1.6328e+06                        0              3.30659e+06                        0              1.44255e+06                        0
#                    1epsi                    2epsi                       3k                       4k                     5mem                     6mem                       7n                       8n                  9nEvals                 10nEvals                    11obj                    12obj
                      0.1                        0                     9730                        0                    29665                        0               1.6328e+06                        0              3.32494e+06                        0              1.90103e+06                        0
#                    1epsi                    2epsi                       3k                       4k                     5mem                     6mem                       7n                       8n                  9nEvals                 10nEvals                    11obj                    12obj
                      0.1                        0                    14596                        0                    42312                        0               1.6328e+06                        0              3.35023e+06                        0              2.49876e+06                        0
#                    1epsi                    2epsi                       3k                       4k                     5mem                     6mem                       7n                       8n                  9nEvals                 10nEvals                    11obj                    12obj
                      0.1                        0                    21894                        0                    59590                        0               1.6328e+06                        0              3.38479e+06                        0              3.28992e+06                        0
#                    1epsi                    2epsi                       3k                       4k                     5mem                     6mem                       7n                       8n                  9nEvals                 10nEvals                    11obj                    12obj
                      0.1                        0                    32842                        0                    82835                        0               1.6328e+06                        0              3.43128e+06                        0              4.27554e+06                        0
#                    1epsi                    2epsi                       3k                       4k                     5mem                     6mem                       7n                       8n                  9nEvals                 10nEvals                    11obj                    12obj
                      0.1                        0                    49263                        0                   113515                        0               1.6328e+06                        0              3.49264e+06                        0              5.46421e+06                        0
#                    1epsi                    2epsi                       3k                       4k                     5mem                     6mem                       7n                       8n                  9nEvals                 10nEvals                    11obj                    12obj
                      0.1                        0                    73894                        0                   153721                        0               1.6328e+06                        0              3.57305e+06                        0              6.90807e+06                        0
#                    1epsi                    2epsi                       3k                       4k                     5mem                     6mem                       7n                       8n                  9nEvals                 10nEvals                    11obj                    12obj
                      0.1                        0                   110842                        0                   204420                        0               1.6328e+06                        0              3.67445e+06                        0              8.17183e+06                        0
#                    1epsi                    2epsi                       3k                       4k                     5mem                     6mem                       7n                       8n                  9nEvals                 10nEvals                    11obj                    12obj
                      0.1                        0                   166263                        0                   266176                        0               1.6328e+06                        0              3.79796e+06                        0              9.34231e+06                        0
#                    1epsi                    2epsi                       3k                       4k                     5mem                     6mem                       7n                       8n                  9nEvals                 10nEvals                    11obj                    12obj
                      0.1                        0                   249394                        0                   340092                        0               1.6328e+06                        0              3.94579e+06                        0              1.04366e+07                        0
#                    1epsi                    2epsi                       3k                       4k                     5mem                     6mem                       7n                       8n                  9nEvals                 10nEvals                    11obj                    12obj
                      0.1                        0                   374091                        0                   425134                        0               1.6328e+06                        0              4.11588e+06                        0              1.13787e+07                        0
