#                    1epsi                    2epsi                       3k                       4k                     5mem                     6mem                       7n                       8n                  9nEvals                 10nEvals                    11obj                    12obj
                      0.1                        0                       10                        0                       54                        0                    77360                        0                   154969                        0                    16271                        0
#                    1epsi                    2epsi                       3k                       4k                     5mem                     6mem                       7n                       8n                  9nEvals                 10nEvals                    11obj                    12obj
                      0.1                        0                       20                        0                      102                        0                    77360                        0                   155184                        0                    24511                        0
#                    1epsi                    2epsi                       3k                       4k                     5mem                     6mem                       7n                       8n                  9nEvals                 10nEvals                    11obj                    12obj
                      0.1                        0                       30                        0                      149                        0                    77360                        0                   155406                        0                    31021                        0
#                    1epsi                    2epsi                       3k                       4k                     5mem                     6mem                       7n                       8n                  9nEvals                 10nEvals                    11obj                    12obj
                      0.1                        0                       40                        0                      191                        0                    77360                        0                   155608                        0                    36930                        0
#                    1epsi                    2epsi                       3k                       4k                     5mem                     6mem                       7n                       8n                  9nEvals                 10nEvals                    11obj                    12obj
                      0.1                        0                       50                        0                      232                        0                    77360                        0                   155804                        0                    41958                        0
#                    1epsi                    2epsi                       3k                       4k                     5mem                     6mem                       7n                       8n                  9nEvals                 10nEvals                    11obj                    12obj
                      0.1                        0                       60                        0                      284                        0                    77360                        0                   156078                        0                    46810                        0
#                    1epsi                    2epsi                       3k                       4k                     5mem                     6mem                       7n                       8n                  9nEvals                 10nEvals                    11obj                    12obj
                      0.1                        0                       70                        0                      321                        0                    77360                        0                   156259                        0                    51157                        0
#                    1epsi                    2epsi                       3k                       4k                     5mem                     6mem                       7n                       8n                  9nEvals                 10nEvals                    11obj                    12obj
                      0.1                        0                       80                        0                      366                        0                    77360                        0                   156489                        0                    55382                        0
#                    1epsi                    2epsi                       3k                       4k                     5mem                     6mem                       7n                       8n                  9nEvals                 10nEvals                    11obj                    12obj
                      0.1                        0                       90                        0                      411                        0                    77360                        0                   156713                        0                    59300                        0
#                    1epsi                    2epsi                       3k                       4k                     5mem                     6mem                       7n                       8n                  9nEvals                 10nEvals                    11obj                    12obj
                      0.1                        0                      100                        0                      443                        0                    77360                        0                   156925                        0                    63140                        0
