#                    1epsi                    2epsi                       3k                       4k                     5mem                     6mem                       7n                       8n                  9nEvals                 10nEvals                    11obj                    12obj
                      0.1                        0                     1000                        0                        0                        0                    77360                        0                   335612                        0                   208284                        0
#                    1epsi                    2epsi                       3k                       4k                     5mem                     6mem                       7n                       8n                  9nEvals                 10nEvals                    11obj                    12obj
                      0.1                        0                     6000                        0                        0                        0                    77360                        0                   457421                        0                   290679                        0
#                    1epsi                    2epsi                       3k                       4k                     5mem                     6mem                       7n                       8n                  9nEvals                 10nEvals                    11obj                    12obj
                      0.1                        0                    11000                        0                        0                        0                    77360                        0                   538011                        0                   302382                        0
#                    1epsi                    2epsi                       3k                       4k                     5mem                     6mem                       7n                       8n                  9nEvals                 10nEvals                    11obj                    12obj
                      0.1                        0                    16000                        0                        0                        0                    77360                        0                   601594                        0                   307277                        0
#                    1epsi                    2epsi                       3k                       4k                     5mem                     6mem                       7n                       8n                  9nEvals                 10nEvals                    11obj                    12obj
                      0.1                        0                    21000                        0                        0                        0                    77360                        0                   676288                        0                   312185                        0
#                    1epsi                    2epsi                       3k                       4k                     5mem                     6mem                       7n                       8n                  9nEvals                 10nEvals                    11obj                    12obj
                      0.1                        0                    26000                        0                        0                        0                    77360                        0                   703547                        0                   312378                        0
#                    1epsi                    2epsi                       3k                       4k                     5mem                     6mem                       7n                       8n                  9nEvals                 10nEvals                    11obj                    12obj
                      0.1                        0                    31000                        0                        0                        0                    77360                        0                   706604                        0                   312729                        0
#                    1epsi                    2epsi                       3k                       4k                     5mem                     6mem                       7n                       8n                  9nEvals                 10nEvals                    11obj                    12obj
                      0.1                        0                    36000                        0                        0                        0                    77360                        0                   710752                        0                   313246                        0
#                    1epsi                    2epsi                       3k                       4k                     5mem                     6mem                       7n                       8n                  9nEvals                 10nEvals                    11obj                    12obj
                      0.1                        0                    41000                        0                        0                        0                    77360                        0                   713720                        0                   312673                        0
#                    1epsi                    2epsi                       3k                       4k                     5mem                     6mem                       7n                       8n                  9nEvals                 10nEvals                    11obj                    12obj
                      0.1                        0                    46000                        0                        0                        0                    77360                        0                   713684                        0                   312562                        0
