#                    1epsi                    2epsi                       3k                       4k                     5mem                     6mem                       7n                       8n                  9nEvals                 10nEvals                    11obj                    12obj
                      0.1                        0                        5                        0                        5                        0                      500                        0                   861.65                  55.3504                   103050                  4493.09
#                    1epsi                    2epsi                       3k                       4k                     5mem                     6mem                       7n                       8n                  9nEvals                 10nEvals                    11obj                    12obj
                      0.1                        0                        7                        0                        7                        0                      500                        0                   1128.4                  93.1348                   109622                  3346.26
#                    1epsi                    2epsi                       3k                       4k                     5mem                     6mem                       7n                       8n                  9nEvals                 10nEvals                    11obj                    12obj
                      0.1                        0                       11                        0                       11                        0                      500                        0                     1631                  115.036                   115826                   1740.3
#                    1epsi                    2epsi                       3k                       4k                     5mem                     6mem                       7n                       8n                  9nEvals                 10nEvals                    11obj                    12obj
                      0.1                        0                       16                        0                       16                        0                      500                        0                  2268.07                  170.826                   119342                  1108.67
#                    1epsi                    2epsi                       3k                       4k                     5mem                     6mem                       7n                       8n                  9nEvals                 10nEvals                    11obj                    12obj
                      0.1                        0                       25                        0                       25                        0                      500                        0                   3203.5                  256.155                   122338                  752.148
#                    1epsi                    2epsi                       3k                       4k                     5mem                     6mem                       7n                       8n                  9nEvals                 10nEvals                    11obj                    12obj
                      0.1                        0                       37                        0                       37                        0                      500                        0                  4117.25                  395.159                   123888                  370.499
#                    1epsi                    2epsi                       3k                       4k                     5mem                     6mem                       7n                       8n                  9nEvals                 10nEvals                    11obj                    12obj
                      0.1                        0                       56                        0                       56                        0                      500                        0                   5220.2                  529.667                   124541                  338.732
#                    1epsi                    2epsi                       3k                       4k                     5mem                     6mem                       7n                       8n                  9nEvals                 10nEvals                    11obj                    12obj
                      0.1                        0                       85                        0                       85                        0                      500                        0                  5487.95                  828.299                   124193                  245.228
#                    1epsi                    2epsi                       3k                       4k                     5mem                     6mem                       7n                       8n                  9nEvals                 10nEvals                    11obj                    12obj
                      0.1                        0                      128                        0                      128                        0                      500                        0                  2727.35                  1372.24                   122621                  144.037
