#                    1epsi                    2epsi                       3k                       4k                     5mem                     6mem                       7n                       8n                  9nEvals                 10nEvals                    11obj                    12obj
                     0.05                        0                      100                        0                      100                        0                     4039                        0                   109175                  2933.95                  12841.3                  666.867
#                    1epsi                    2epsi                       3k                       4k                     5mem                     6mem                       7n                       8n                  9nEvals                 10nEvals                    11obj                    12obj
                      0.1                        0                      100                        0                      100                        0                     4039                        0                   109268                  2669.68                  12943.8                  744.632
#                    1epsi                    2epsi                       3k                       4k                     5mem                     6mem                       7n                       8n                  9nEvals                 10nEvals                    11obj                    12obj
                     0.15                        0                      100                        0                      100                        0                     4039                        0                   110208                  2207.93                  12804.8                  716.354
#                    1epsi                    2epsi                       3k                       4k                     5mem                     6mem                       7n                       8n                  9nEvals                 10nEvals                    11obj                    12obj
                      0.2                        0                      100                        0                      100                        0                     4039                        0                   109273                  2933.54                    12849                  717.999
#                    1epsi                    2epsi                       3k                       4k                     5mem                     6mem                       7n                       8n                  9nEvals                 10nEvals                    11obj                    12obj
                     0.25                        0                      100                        0                      100                        0                     4039                        0                   108698                  3261.69                    12902                  811.174
#                    1epsi                    2epsi                       3k                       4k                     5mem                     6mem                       7n                       8n                  9nEvals                 10nEvals                    11obj                    12obj
                      0.3                        0                      100                        0                      100                        0                     4039                        0                   109677                  2923.18                  12948.8                   762.89
#                    1epsi                    2epsi                       3k                       4k                     5mem                     6mem                       7n                       8n                  9nEvals                 10nEvals                    11obj                    12obj
                     0.35                        0                      100                        0                      100                        0                     4039                        0                   109420                  2942.65                  12865.1                   676.07
#                    1epsi                    2epsi                       3k                       4k                     5mem                     6mem                       7n                       8n                  9nEvals                 10nEvals                    11obj                    12obj
                      0.4                        0                      100                        0                      100                        0                     4039                        0                   108127                  2866.66                  12819.9                   563.29
#                    1epsi                    2epsi                       3k                       4k                     5mem                     6mem                       7n                       8n                  9nEvals                 10nEvals                    11obj                    12obj
                     0.45                        0                      100                        0                      100                        0                     4039                        0                   108895                  2990.37                  13046.9                  504.325
#                    1epsi                    2epsi                       3k                       4k                     5mem                     6mem                       7n                       8n                  9nEvals                 10nEvals                    11obj                    12obj
                      0.5                        0                      100                        0                      100                        0                     4039                        0                   109970                   3207.7                  13030.1                   677.55
