#                    1epsi                    2epsi                       3k                       4k                     5mem                     6mem                       7n                       8n                  9nEvals                 10nEvals                    11obj                    12obj
                      0.2                        0                       50                        0                     1438                        0                    18772                        0                    40522                        0                    13247                        0
#                    1epsi                    2epsi                       3k                       4k                     5mem                     6mem                       7n                       8n                  9nEvals                 10nEvals                    11obj                    12obj
                      0.2                        0                      100                        0                     2434                        0                    18772                        0                    42712                        0                    21197                        0
#                    1epsi                    2epsi                       3k                       4k                     5mem                     6mem                       7n                       8n                  9nEvals                 10nEvals                    11obj                    12obj
                      0.2                        0                      150                        0                     3210                        0                    18772                        0                    44516                        0                    27369                        0
#                    1epsi                    2epsi                       3k                       4k                     5mem                     6mem                       7n                       8n                  9nEvals                 10nEvals                    11obj                    12obj
                      0.2                        0                      200                        0                     3857                        0                    18772                        0                    46028                        0                    32791                        0
#                    1epsi                    2epsi                       3k                       4k                     5mem                     6mem                       7n                       8n                  9nEvals                 10nEvals                    11obj                    12obj
                      0.2                        0                      250                        0                     4445                        0                    18772                        0                    47546                        0                    37563                        0
#                    1epsi                    2epsi                       3k                       4k                     5mem                     6mem                       7n                       8n                  9nEvals                 10nEvals                    11obj                    12obj
                      0.2                        0                      300                        0                     4969                        0                    18772                        0                    48957                        0                    41827                        0
#                    1epsi                    2epsi                       3k                       4k                     5mem                     6mem                       7n                       8n                  9nEvals                 10nEvals                    11obj                    12obj
                      0.2                        0                      350                        0                     5390                        0                    18772                        0                    50197                        0                    45793                        0
#                    1epsi                    2epsi                       3k                       4k                     5mem                     6mem                       7n                       8n                  9nEvals                 10nEvals                    11obj                    12obj
                      0.2                        0                      400                        0                     5842                        0                    18772                        0                    51545                        0                    49390                        0
#                    1epsi                    2epsi                       3k                       4k                     5mem                     6mem                       7n                       8n                  9nEvals                 10nEvals                    11obj                    12obj
                      0.2                        0                      450                        0                     6253                        0                    18772                        0                    52799                        0                    52770                        0
#                    1epsi                    2epsi                       3k                       4k                     5mem                     6mem                       7n                       8n                  9nEvals                 10nEvals                    11obj                    12obj
                      0.2                        0                      500                        0                     6608                        0                    18772                        0                    53940                        0                    55875                        0
