#                    1epsi                    2epsi                       3k                       4k                     5mem                     6mem                       7n                       8n                  9nEvals                 10nEvals                    11obj                    12obj
                      0.2                        0                       50                        0                      978                        0                     5242                        0                    12783                        0                     1950                        0
#                    1epsi                    2epsi                       3k                       4k                     5mem                     6mem                       7n                       8n                  9nEvals                 10nEvals                    11obj                    12obj
                      0.2                        0                      100                        0                     1576                        0                     5242                        0                    14383                        0                     3050                        0
#                    1epsi                    2epsi                       3k                       4k                     5mem                     6mem                       7n                       8n                  9nEvals                 10nEvals                    11obj                    12obj
                      0.2                        0                      150                        0                     2034                        0                     5242                        0                    15721                        0                     3863                        0
#                    1epsi                    2epsi                       3k                       4k                     5mem                     6mem                       7n                       8n                  9nEvals                 10nEvals                    11obj                    12obj
                      0.2                        0                      200                        0                     2411                        0                     5242                        0                    16812                        0                     4519                        0
#                    1epsi                    2epsi                       3k                       4k                     5mem                     6mem                       7n                       8n                  9nEvals                 10nEvals                    11obj                    12obj
                      0.2                        0                      250                        0                     2699                        0                     5242                        0                    17833                        0                     5059                        0
#                    1epsi                    2epsi                       3k                       4k                     5mem                     6mem                       7n                       8n                  9nEvals                 10nEvals                    11obj                    12obj
                      0.2                        0                      300                        0                     2950                        0                     5242                        0                    18667                        0                     5528                        0
#                    1epsi                    2epsi                       3k                       4k                     5mem                     6mem                       7n                       8n                  9nEvals                 10nEvals                    11obj                    12obj
                      0.2                        0                      350                        0                     3112                        0                     5242                        0                    19283                        0                     5944                        0
#                    1epsi                    2epsi                       3k                       4k                     5mem                     6mem                       7n                       8n                  9nEvals                 10nEvals                    11obj                    12obj
                      0.2                        0                      400                        0                     3381                        0                     5242                        0                    20241                        0                     6297                        0
#                    1epsi                    2epsi                       3k                       4k                     5mem                     6mem                       7n                       8n                  9nEvals                 10nEvals                    11obj                    12obj
                      0.2                        0                      450                        0                     3606                        0                     5242                        0                    21142                        0                     6601                        0
#                    1epsi                    2epsi                       3k                       4k                     5mem                     6mem                       7n                       8n                  9nEvals                 10nEvals                    11obj                    12obj
                      0.2                        0                      500                        0                     3677                        0                     5242                        0                    21624                        0                     6882                        0
